digraph G {
    node [shape=box];
    subgraph cluster0 {
        node [style=filled,fillcolor=white];
        labeljust="l";
        style=filled;
        color="#8DD3C7";
        H0_0 -> H0_5;
        label="H0 (9-13-21-25) (diag)";
    }
    subgraph cluster1 {
        node [style=filled,fillcolor=white];
        labeljust="l";
        style=filled;
        color="#FFFFB3";
        H1_0 -> H1_5;
        label="H1 (5-9-17-21) (diag)";
    }
    subgraph cluster2 {
        node [style=filled,fillcolor=white];
        labeljust="l";
        style=filled;
        color="#BEBADA";
        H2_0;
        label="H2 (1-5-13-17) (clique)";
    }
     14 [shape=record,label= <{  <FONT COLOR="RED">A</FONT>  <FONT COLOR="DARKGREEN">1</FONT>  <FONT COLOR="DARKGREEN">13</FONT>  <FONT COLOR="DARKGREEN">21</FONT>  <FONT COLOR="DARKGREEN">25</FONT>}> ];
     -1  ->  14;
     1 [shape=record,label= <{  <FONT COLOR="RED">B</FONT> <b>1</b> <b>13</b>  <FONT COLOR="DARKGREEN">17</FONT> <b>21</b>  <FONT COLOR="DARKGREEN">5</FONT>}> ];
     14  ->  1;
     H2_0 [shape=record,label= <{ <b>1</b> <b>5</b> <b>13</b> <b>17</b>}> ];
     1  ->  H2_0;
     H1_0 [shape=record,label= <{  <FONT COLOR="RED">C</FONT> <b>5</b> <b>21</b>|  <b>17</b>}> ];
     1  ->  H1_0;
     H1_5 [shape=record,label= <{ <b>9</b> <b>17</b>|  <b>17</b>}> ];
     H0_0 [shape=record,label= <{  <FONT COLOR="RED">D</FONT> <b>13</b> <b>21</b>|  <b>13</b> <b>21</b>}> ];
     14  ->  H0_0;
     H0_5 [shape=record,label= <{ <b>9</b> <b>25</b>|  <b>13</b> <b>21</b>}> ];
     _1 [shape=record,label= <{  <FONT COLOR="RED">E</FONT>}> ];
     14  ->  _1;
}
